<?xml version="1.0" encoding="utf-8"?>
<!-- Generator: Adobe Illustrator 21.1.0, SVG Export Plug-In . SVG Version: 6.00 Build 0)  -->
<svg version="1.1" id="Слой_1" xmlns="http://www.w3.org/2000/svg" xmlns:xlink="http://www.w3.org/1999/xlink" x="0px" y="0px"
	 viewBox="0 0 83 103.7" style="enable-background:new 0 0 83 103.7;" xml:space="preserve">
<style type="text/css">
	.st0{fill:#00599F;}
	.st1{fill:#373E4C;}
</style>
<g id="Слой_x0020_1_1_">
	<path class="st0" d="M30.4,32.2c0,0.1-0.1,0.2-0.1,0.4L26,60.3c-0.1,0.3,0,0.7,0.2,1L40,89c0.3,0.6,0.8,0.9,1.5,0.9
		c0.6,0,1.2-0.4,1.5-0.9l13.9-27.7c0.2-0.3,0.2-0.7,0.2-1l-4.3-27.5l2.7-31c0-0.5-0.1-0.9-0.4-1.3C54.7,0.2,54.2,0,53.8,0L29.9,0
		c-0.5,0-0.9,0.2-1.2,0.5c-0.3,0.3-0.5,0.8-0.4,1.2l2.3,30.4L30.4,32.2L30.4,32.2z M41.5,57.2c-2.4,0-4.4-2-4.4-4.4
		c0-2.4,2-4.4,4.4-4.4c2.4,0,4.4,2,4.4,4.4C45.9,55.2,43.9,57.2,41.5,57.2z M52,3.3l-2.4,27.9H33.7L31.6,3.3H52z M33.4,34.5h16.2
		l4,25.8l-10.5,21v-21l0.4-0.1c3.4-0.9,5.7-4,5.7-7.4c0-4.3-3.5-7.7-7.7-7.7c-4.3,0-7.7,3.5-7.7,7.7c0,3.5,2.3,6.5,5.7,7.4l0.4,0.1
		v21l-10.5-21L33.4,34.5L33.4,34.5z"/>
	<path class="st1" d="M63.2,99.6v2.7c0,0.9,0.7,1.6,1.6,1.6h8.7c0.9,0,1.6-0.7,1.6-1.6v-8.7c0-0.9-0.7-1.6-1.6-1.6h-8.7
		c-0.9,0-1.6,0.7-1.6,1.6v2.7H19.7v-2.7c0-0.9-0.7-1.6-1.6-1.6H9.4c-0.9,0-1.6,0.7-1.6,1.6v8.7c0,0.9,0.7,1.6,1.6,1.6h8.7
		c0.9,0,1.6-0.7,1.6-1.6v-2.7H63.2z M41.5,94.5C64.4,94.5,83,75.9,83,53c0-0.9-0.7-1.6-1.6-1.6c-0.9,0-1.6,0.7-1.6,1.6
		c0,21.1-17.1,38.2-38.2,38.2C20.4,91.2,3.3,74.1,3.3,53c0-0.9-0.7-1.6-1.6-1.6C0.7,51.4,0,52.1,0,53C0,75.9,18.6,94.5,41.5,94.5
		L41.5,94.5z M16.5,100.6h-5.4v-5.4h5.4V100.6z M71.9,100.6h-5.4v-5.4h5.4V100.6z"/>
</g>
</svg>
